…
``` r
last_day_in_month <- last_day_in_month %>% 
  filter(
    date == last_day
  ) %>% 
  arrange(
    account_id,
    date
  )
last_day_in_month
```

    ## # A tibble: 357,571 × 14
    ##    trans_id account_id date       cashflow operation        amount balance
    ##       <int>      <int> <date>     <fct>    <fct>             <dbl>   <dbl>
    ##  1        1          1 1995-03-24 IN       CASH CREDIT      1000     1000 
    ##  2  3530438          1 1995-04-30 IN       <NA>               19.2  17298.
    ##  3  3530439          1 1995-05-31 IN       <NA>               79    23156.
    ##  4  3530440          1 1995-06-30 IN       <NA>              101.   26736.
    ##  5  3530441          1 1995-07-31 IN       <NA>              109.   25224.
    ##  6      159          1 1995-08-31 OUT      CASH WIDTHDRAWAL   14.6  21487.
    ##  7  3530442          1 1995-08-31 IN       <NA>               99.2  21502.
    ##  8      160          1 1995-09-30 OUT      CASH WIDTHDRAWAL   14.6  22091.
    ##  9  3530443          1 1995-09-30 IN       <NA>               91.5  22106.
    ## 10      161          1 1995-10-31 OUT      CASH WIDTHDRAWAL   14.6  20494.
    ## # ℹ 357,561 more rows
    ## # ℹ 7 more variables: characterization <fct>, bank_name <fct>,
    ## #   account_nr <int>, quarter <yearqtr>, year <dbl>, month <dbl>,
    ## #   last_day <date>
…
  mutate('1996_Q2_Income' = 'IN_1996 Q2') %>%
  mutate('1996_Q3_Income' = 'IN_1996 Q3') %>%
  mutate('1996_Q4_Income' = 'IN_1996 Q4') %>%
  mutate('1997_Q1_Income' = 'IN_1997 Q1') %>%
  mutate('1997_Q2_Income' = 'IN_1997 Q2') %>%
  mutate('1997_Q3_Income' = 'IN_1997 Q3') %>%
  mutate('1997_Q4_Income' = 'IN_1997 Q4') %>%
  mutate('1998_Q1_Income' = 'IN_1998 Q1') %>%
  mutate('1998_Q2_Income' = 'IN_1998 Q2') %>%
  mutate('1998_Q3_Income' = 'IN_1998 Q3') %>%
  mutate('1998_Q4_Income' = 'IN_1998 Q4') %>%
  select(account_id, '1993_Q1_Expenses', '1993_Q2_Expenses', '1993_Q3_Expenses', '1993_Q4_Expenses', '1994_Q1_Expenses', '1994_Q2_Expenses', '1994_Q3_Expenses', '1994_Q4_Expenses', '1995_Q1_Expenses', '1995_Q2_Expenses', '1995_Q3_Expenses', '1995_Q4_Expenses', '1996_Q1_Expenses', '1996_Q2_Expenses', '1996_Q3_Expenses', '1996_Q4_Expenses', '1997_Q1_Expenses', '1997_Q2_Expenses', '1997_Q3_Expenses', '1997_Q4_Expenses', '1998_Q1_Expenses', '1998_Q2_Expenses', '1998_Q3_Expenses', '1998_Q4_Expenses', '1993_Q1_Income', '1993_Q2_Income', '1993_Q3_Income', '1993_Q4_Income', '1994_Q1_Income', '1994_Q2_Income', '1994_Q3_Income', '1994_Q4_Income', '1995_Q1_Income', '1995_Q2_Income', '1995_Q3_Income', '1995_Q4_Income', '1996_Q1_Income', '1996_Q2_Income', '1996_Q3_Income', '1996_Q4_Income', '1997_Q1_Income', '1997_Q2_Income', '1997_Q3_Income', '1997_Q4_Income', '1998_Q1_Income', '1998_Q2_Income', '1998_Q3_Income', '1998_Q4_Income')
```

    ## # A tibble: 4,500 × 49
    ## # Groups:   account_id [4,500]
    ##    account_id `1993_Q1_Expenses` `1993_Q2_Expenses` `1993_Q3_Expenses`
    ##         <int> <chr>              <chr>              <chr>             
    ##  1          1 OUT_1993 Q1        OUT_1993 Q2        OUT_1993 Q3       
    ##  2          2 OUT_1993 Q1        OUT_1993 Q2        OUT_1993 Q3       
    ##  3          3 OUT_1993 Q1        OUT_1993 Q2        OUT_1993 Q3       
    ##  4          4 OUT_1993 Q1        OUT_1993 Q2        OUT_1993 Q3       
    ##  5          5 OUT_1993 Q1        OUT_1993 Q2        OUT_1993 Q3       
    ##  6          6 OUT_1993 Q1        OUT_1993 Q2        OUT_1993 Q3       
    ##  7          7 OUT_1993 Q1        OUT_1993 Q2        OUT_1993 Q3       
    ##  8          8 OUT_1993 Q1        OUT_1993 Q2        OUT_1993 Q3       
    ##  9          9 OUT_1993 Q1        OUT_1993 Q2        OUT_1993 Q3       
    ## 10         10 OUT_1993 Q1        OUT_1993 Q2        OUT_1993 Q3       
    ## # ℹ 4,490 more rows
    ## # ℹ 45 more variables: `1993_Q4_Expenses` <chr>, `1994_Q1_Expenses` <chr>,
    ## #   `1994_Q2_Expenses` <chr>, `1994_Q3_Expenses` <chr>,
    ## #   `1994_Q4_Expenses` <chr>, `1995_Q1_Expenses` <chr>,
    ## #   `1995_Q2_Expenses` <chr>, `1995_Q3_Expenses` <chr>,
    ## #   `1995_Q4_Expenses` <chr>, `1996_Q1_Expenses` <chr>,
    ## #   `1996_Q2_Expenses` <chr>, `1996_Q3_Expenses` <chr>, …
…
``` r
transaction_result %>%
  group_by(
    account_id,
    date
    ) %>%
  count() %>%
  arrange(desc(n)) %>% 
  ungroup()
```

    ## # A tibble: 814,645 × 3
    ##    account_id date           n
    ##         <int> <date>     <int>
    ##  1       9814 1998-11-30     3
    ##  2          2 1994-06-12     2
    ##  3         17 1998-08-31     2
    ##  4         88 1996-11-30     2
    ##  5        151 1994-01-31     2
    ##  6        167 1998-08-31     2
    ##  7        264 1997-10-31     2
    ##  8        297 1998-01-31     2
    ##  9        339 1998-10-12     2
    ## 10        378 1998-11-12     2
    ## # ℹ 814,635 more rows
…
last_transaction %>% 
  group_by(
    account_id,
    date
  )%>% 
  count() %>% 
  ungroup() %>% 
  arrange(desc(n))
```

    ## # A tibble: 814,645 × 3
    ##    account_id date           n
    ##         <int> <date>     <int>
    ##  1          1 1995-03-24     1
    ##  2          1 1995-04-13     1
    ##  3          1 1995-04-23     1
    ##  4          1 1995-04-30     1
    ##  5          1 1995-05-13     1
    ##  6          1 1995-05-23     1
    ##  7          1 1995-05-31     1
    ##  8          1 1995-06-13     1
    ##  9          1 1995-06-22     1
    ## 10          1 1995-06-30     1
    ## # ℹ 814,635 more rows
…
``` r
last_transaction %>% 
  group_by(account_id, date) %>% 
  count() %>% 
  arrange(desc(n))
```

    ## # A tibble: 814,743 × 3
    ## # Groups:   account_id, date [814,743]
    ##    account_id date           n
    ##         <int> <date>     <int>
    ##  1          1 1995-03-24     1
    ##  2          1 1995-04-13     1
    ##  3          1 1995-04-23     1
    ##  4          1 1995-04-30     1
    ##  5          1 1995-05-13     1
    ##  6          1 1995-05-23     1
    ##  7          1 1995-05-31     1
    ##  8          1 1995-06-13     1
    ##  9          1 1995-06-22     1
    ## 10          1 1995-06-30     1
    ## # ℹ 814,733 more rows
…
#Relocate rows so new column "current_age" is next to dateofbirth
df_cons <- df_cons %>%
   relocate(age_dec1999, .after = owner_dateofbirth)
 
 
#Create Barplot with distrbution of age 
df_cons %>%
   group_by(account_id) %>%
   filter(row_number() == 1)
```

    ## # A tibble: 4,500 × 202
    ## # Groups:   account_id [4,500]
    ##    account_id account_frequency account_opening_date account_opening_year
    ##         <int> <fct>             <date>                              <dbl>
    ##  1          1 Monthly           1995-03-24                           1995
    ##  2          2 Monthly           1993-02-26                           1993
    ##  3          3 Monthly           1997-07-07                           1997
    ##  4          4 Monthly           1996-02-21                           1996
    ##  5          5 Monthly           1997-05-30                           1997
    ##  6          6 Monthly           1994-09-27                           1994
    ##  7          7 Monthly           1996-11-24                           1996
    ##  8          8 Monthly           1995-09-21                           1995
    ##  9          9 Monthly           1993-01-27                           1993
    ## 10         10 Monthly           1996-08-28                           1996
    ## # ℹ 4,490 more rows
    ## # ℹ 198 more variables: account_opening_month <dbl>, account_num_of_user <int>,
    ## #   account_district_name <fct>, account_district_region <fct>,
    ## #   account_district_average_salary <int>, account_district_inhabitants <int>,
    ## #   order_total_amount_household <dbl>, order_total_amount_loan <dbl>,
    ## #   order_total_amount_insurrance <dbl>, order_total_amount_unknown <dbl>,
    ## #   order_total_amount_leasing <dbl>, order_num_household <dbl>, …
…
# Filter empty transaction, group the data frame by the charachterization and the quarter to get the count of each transaction type in each quarter. 
df_transaction_type_count <- df_transaction_complete %>%
  filter(!is.na(trans_id)) %>%
  group_by(characterization, quarter) %>%
  mutate(count = sum(n())) %>%
  select(count, characterization, quarter) %>%
  distinct()

df_transaction_type_count
```

    ## # A tibble: 189 × 3
    ## # Groups:   characterization, quarter [189]
    ##    count characterization  quarter
    ##    <int> <fct>               <dbl>
    ##  1 19176 <NA>                1995.
    ##  2 14845 <NA>                1995.
    ##  3  5474 CREDIT INTEREST     1995.
    ##  4 15239 <NA>                1995.
    ##  5  5938 CREDIT INTEREST     1995.
    ##  6  5166 STATEMENT PAYMENT   1995.
    ##  7  3766 HOUSEHOLD           1995.
    ##  8  4120 HOUSEHOLD           1995.
    ##  9 18468 <NA>                1995.
    ## 10  5609 STATEMENT PAYMENT   1995.
    ## # ℹ 179 more rows
…
#### Anzahl der Kunden in den einzelnen Distrikten.[^71]

``` r
# Preparation of the data frame that will be used to display the count of customers in each district
df_customers_per_district <- df_district_mod %>%
  group_by(district_name) %>%
  mutate(count = sum(n())) %>%
  select(district_name, count) %>%
  distinct()

df_customers_per_district
```

    ## # A tibble: 77 × 2
    ## # Groups:   district_name [77]
    ##    district_name    count
    ##    <chr>            <int>
    ##  1 Benesov             42
    ##  2 Beroun              50
    ##  3 Blansko             50
    ##  4 Breclav             44
    ##  5 Brno - mesto       128
    ##  6 Brno - venkov       53
    ##  7 Bruntal             43
    ##  8 Ceska Lipa          48
    ##  9 Ceske Budejovice    41
    ## 10 Cesky Krumlov       50
    ## # ℹ 67 more rows
…
in_out_yearly <- in_out_monthly %>% 
  group_by(account_id, year) %>% 
  summarise(incomes_per_year = round(mean(incomes_per_month), digits = 0) * 12) %>% 
  ungroup()


#prepare unemploymentrate for 1995 1996

in_out_yearly_crime_unemployment <- in_out_yearly [!(in_out_yearly$year=="1993" | in_out_yearly$year=="1994" | in_out_yearly$year=="1997" | in_out_yearly$year=="1998"),]

#check Data
in_out_yearly_crime_unemployment
```

    ## # A tibble: 5,840 × 3
    ##    account_id  year incomes_per_year
    ##         <int> <dbl>            <dbl>
    ##  1          1  1995            60120
    ##  2          1  1996            66600
    ##  3          2  1995           550404
    ##  4          2  1996           371988
    ##  5          4  1996            62736
    ##  6          6  1995            82716
    ##  7          6  1996            89652
    ##  8          7  1996           209424
    ##  9          8  1995           229728
    ## 10          8  1996           578292
    ## # ℹ 5,830 more rows
…
